…
pols_clean
```

    ## # A tibble: 822 × 9
    ##     year month    gov_gop sen_gop rep_gop gov_dem sen_dem rep_dem president
    ##    <int> <chr>      <dbl>   <dbl>   <dbl>   <dbl>   <dbl>   <dbl> <chr>    
    ##  1  1947 April         23      51     253      23      45     198 dem      
    ##  2  1947 August        23      51     253      23      45     198 dem      
    ##  3  1947 December      24      51     253      23      45     198 dem      
    ##  4  1947 February      23      51     253      23      45     198 dem      
    ##  5  1947 January       23      51     253      23      45     198 dem      
    ##  6  1947 July          23      51     253      23      45     198 dem      
    ##  7  1947 June          23      51     253      23      45     198 dem      
    ##  8  1947 March         23      51     253      23      45     198 dem      
    ##  9  1947 May           23      51     253      23      45     198 dem      
    ## 10  1947 November      24      51     253      23      45     198 dem      
    ## # ℹ 812 more rows
…
snp_clean
```

    ## # A tibble: 787 × 3
    ##     year month    close
    ##    <dbl> <chr>    <dbl>
    ##  1  1950 April     18.0
    ##  2  1950 August    18.4
    ##  3  1950 December  20.4
    ##  4  1950 February  17.2
    ##  5  1950 January   17.0
    ##  6  1950 July      17.8
    ##  7  1950 June      17.7
    ##  8  1950 March     17.3
    ##  9  1950 May       18.8
    ## 10  1950 November  19.5
    ## # ℹ 777 more rows
…
unemployment_clean
```

    ## # A tibble: 816 × 3
    ##     year month    unemployment_rate
    ##    <int> <chr>                <dbl>
    ##  1  1948 April                  3.9
    ##  2  1948 August                 3.9
    ##  3  1948 December               4  
    ##  4  1948 February               3.8
    ##  5  1948 January                3.4
    ##  6  1948 July                   3.6
    ##  7  1948 June                   3.6
    ##  8  1948 March                  4  
    ##  9  1948 May                    3.5
    ## 10  1948 November               3.8
    ## # ℹ 806 more rows
…
``` r
# Now ready for merge, will merge snp into pols first
merged_data = 
  left_join(pols_clean, snp_clean, by = c("year", "month"))

 # Then merge unemployment into the result
final_data =
  left_join(merged_data, unemployment_clean, by = c("year", "month"))

final_data
```

    ## # A tibble: 822 × 11
    ##     year month   gov_gop sen_gop rep_gop gov_dem sen_dem rep_dem president close
    ##    <dbl> <chr>     <dbl>   <dbl>   <dbl>   <dbl>   <dbl>   <dbl> <chr>     <dbl>
    ##  1  1947 April        23      51     253      23      45     198 dem          NA
    ##  2  1947 August       23      51     253      23      45     198 dem          NA
    ##  3  1947 Decemb…      24      51     253      23      45     198 dem          NA
    ##  4  1947 Februa…      23      51     253      23      45     198 dem          NA
    ##  5  1947 January      23      51     253      23      45     198 dem          NA
    ##  6  1947 July         23      51     253      23      45     198 dem          NA
    ##  7  1947 June         23      51     253      23      45     198 dem          NA
    ##  8  1947 March        23      51     253      23      45     198 dem          NA
    ##  9  1947 May          23      51     253      23      45     198 dem          NA
    ## 10  1947 Novemb…      24      51     253      23      45     198 dem          NA
    ## # ℹ 812 more rows
    ## # ℹ 1 more variable: unemployment_rate <dbl>
…
mr_trash_clean
```

    ## # A tibble: 651 × 15
    ##    dumpster month     year date   weight_tons volume_cubic_yards plastic_bottles
    ##       <dbl> <chr>    <dbl> <chr>        <dbl>              <dbl>           <dbl>
    ##  1       25 August    2014 41855…        4.39                 16            2140
    ##  2       26 August    2014 41855…        5.33                 17            1630
    ##  3       27 August    2014 41864…        3.58                 20            3640
    ##  4       28 August    2014 41864…        3.1                  17            1430
    ##  5       29 August    2014 41870…        1.77                 10             570
    ##  6       42 December  2014 41974…        1.81                 17            1370
    ##  7       43 December  2014 41990…        3.48                 15             550
    ##  8       44 December  2014 42003…        3.18                 15             640
    ##  9       18 July      2014 41823…        2.54                 15            1640
    ## 10       19 July      2014 41827…        2.41                 15            1730
    ## # ℹ 641 more rows
    ## # ℹ 8 more variables: polystyrene <dbl>, cigarette_butts <dbl>,
    ## #   glass_bottles <dbl>, plastic_bags <dbl>, wrappers <dbl>,
    ## #   sports_balls <int>, homes_powered <dbl>, trash_wheel <chr>
